^C:\USERS\RADCH\DESKTOP\ЛАБ2\CONSOLEAPPLICATION1\CONSOLEAPPLICATION1.CPP
C:\USERS\RADCH\DESKTOP\лаб2\CONSOLEAPPLICATION1\DEBUG\VC142.PDB
C:\USERS\RADCH\DESKTOP\лаб2\CONSOLEAPPLICATION1\DEBUG\VC142.IDB
C:\USERS\RADCH\DESKTOP\лаб2\CONSOLEAPPLICATION1\DEBUG\CONSOLEAPPLICATION1.OBJ
